com\mycompany\usermanagment\LoginFrame$2.class
com\mycompany\usermanagment\TestReadFile.class
com\mycompany\usermanagment\LoginFrame.class
com\mycompany\usermanagment\TestWriteFile.class
com\mycompany\usermanagment\User.class
com\mycompany\usermanagment\UserService.class
com\mycompany\usermanagment\LoginFrame$1.class
